# Blender v2.81 (sub 16) OBJ File: ''
# www.blender.org
o Plane.001
v 1.000000 1.000000 0.000000
v 1.000000 -1.000000 -0.000000
v -1.000000 0.000000 0.000000
vn -0.0000 1.0000 0.0000
vn 0.0001 1.0000 0.0000
s 1
f 1//1 2//1 3//2
